cat.var1	med.var2	firstQ	thirdQ	species
Amino acid related enzymes	0.1937173	0.03092784	0.42528485	Arabidopsis
Chaperones and folding catalysts	0.2339623	0.05405405	0.4491979	Arabidopsis
Chromosome and associated proteins	0.2086957	0.03921569	0.4398148	Arabidopsis
Cytochrome P450	0.1794872	0.03141361	0.411215	Arabidopsis
Cytoskeleton proteins	0.2076697	0.04205607	0.4405594	Arabidopsis
DNA repair and recombination proteins	0.2080882	0.04123711	0.4377358	Arabidopsis
DNA replication proteins	0.2039216	0.03896104	0.4329897	Arabidopsis
Exosome	0.1973684	0.03092784	0.4304348	Arabidopsis
Glycosyltransferases	0.1641026	0.02352941	0.4086957	Arabidopsis
Lipid biosynthesis proteins	0.1818182	0.03030303	0.4254892	Arabidopsis
Membrane trafficking	0.2192513	0.04313725	0.4392523	Arabidopsis
Messenger RNA biogenesis	0.2301887	0.05235602	0.4385027	Arabidopsis
Mitochondrial biogenesis	0.2217391	0.0462606875	0.4652174	Arabidopsis
Peptidases	0.1937173	0.03076923	0.4294479	Arabidopsis
Photosynthesis proteins	0.2742114	0.06748466	0.5026738	Arabidopsis
Proteasome	0.2429907	0.0661157	0.4606061	Arabidopsis
Protein kinases	0.2061856	0.03940887	0.4385027	Arabidopsis
Protein phosphatases and associated proteins	0.2173913	0.04166667	0.4398027	Arabidopsis
Ribosome	0.2461538	0.05235602	0.4769231	Arabidopsis
Ribosome biogenesis	0.2196262	0.04824561	0.4307692	Arabidopsis
Spliceosome	0.2447552	0.06018519	0.4528302	Arabidopsis
Transcription factors	0.2383178	0.04958678	0.4861111	Arabidopsis
Transcription machinery	0.2231405	0.05098039	0.4545455	Arabidopsis
Transfer RNA biogenesis	0.1921182	0.03141361	0.4226804	Arabidopsis
Translation factors	0.2324561	0.05194805	0.4502618	Arabidopsis
Transporters	0.2066116	0.04123711	0.4339623	Arabidopsis
Ubiquitin system	0.2235294	0.04712042	0.4480519	Arabidopsis
Chaperones and folding catalysts	0.2675439	0.07692308	0.4824352	Drosophila
Chromosome and associated proteins	0.2153846	0.04545455	0.4485981	Drosophila
Cytoskeleton proteins	0.23996455	0.0627451	0.4545455	Drosophila
DNA repair and recombination proteins	0.2009346	0.03680982	0.4278075	Drosophila
DNA replication proteins	0.2299465	0.05641026	0.4564103	Drosophila
Exosome	0.1871658	0.02564103	0.4171123	Drosophila
G protein-coupled receptors	0.2251309	0.05701754	0.4299065	Drosophila
Glycosyltransferases	0.1757576	0.02463054	0.411215	Drosophila
Ion channels	0.2616822	0.09028857	0.4491979	Drosophila
Membrane trafficking	0.2268519	0.0490566	0.4545455	Drosophila
Messenger RNA biogenesis	0.2447552	0.064604375	0.4377358	Drosophila
Mitochondrial biogenesis	0.226087	0.04895105	0.460733	Drosophila
Peptidases	0.1607843	0.02094241	0.3957219	Drosophila
Protein kinases	0.2139037	0.04824561	0.4391892	Drosophila
Protein phosphatases and associated proteins	0.1841298	0.02597403	0.4224599	Drosophila
Ribosome	0.364486	0.1434783	0.5747664	Drosophila
Ribosome biogenesis	0.2242991	0.04958678	0.4214876	Drosophila
Spliceosome	0.2716981	0.08679245	0.4652406	Drosophila
Transcription factors	0.3455497	0.1308901	0.5454545	Drosophila
Transcription machinery	0.2484848	0.06578947	0.4759358	Drosophila
Transfer RNA biogenesis	0.1773585	0.02564103	0.4090909	Drosophila
Transporters	0.2280702	0.05235602	0.4475524	Drosophila
Ubiquitin system	0.2513369	0.06081081	0.4754717	Drosophila
